info face="Snap ITC" size=73 bold=0 italic=0 charset="" unicode=0 stretchH=100 smooth=1 aa=1 padding=1,1,1,1 spacing=0,0
common lineHeight=96 base=74 scaleW=512 scaleH=512 pages=1 packed=0
page id=0 file="default_font.png"
chars count=67
char id=32   x=0     y=0     width=0     height=0     xoffset=0     yoffset=74    xadvance=34     page=0  chnl=0 
char id=106   x=0     y=0     width=58     height=73     xoffset=-14     yoffset=20    xadvance=33     page=0  chnl=0 
char id=81   x=58     y=0     width=72     height=69     xoffset=1     yoffset=19    xadvance=63     page=0  chnl=0 
char id=82   x=130     y=0     width=64     height=61     xoffset=-2     yoffset=20    xadvance=62     page=0  chnl=0 
char id=57   x=194     y=0     width=62     height=59     xoffset=0     yoffset=19    xadvance=63     page=0  chnl=0 
char id=56   x=256     y=0     width=62     height=59     xoffset=1     yoffset=18    xadvance=64     page=0  chnl=0 
char id=113   x=318     y=0     width=48     height=59     xoffset=0     yoffset=34    xadvance=46     page=0  chnl=0 
char id=112   x=366     y=0     width=48     height=59     xoffset=-1     yoffset=34    xadvance=48     page=0  chnl=0 
char id=107   x=414     y=0     width=57     height=59     xoffset=-1     yoffset=20    xadvance=50     page=0  chnl=0 
char id=103   x=0     y=73     width=48     height=59     xoffset=0     yoffset=34    xadvance=50     page=0  chnl=0 
char id=89   x=48     y=73     width=86     height=59     xoffset=-6     yoffset=20    xadvance=68     page=0  chnl=0 
char id=88   x=134     y=73     width=79     height=59     xoffset=-6     yoffset=20    xadvance=65     page=0  chnl=0 
char id=83   x=213     y=73     width=63     height=59     xoffset=0     yoffset=19    xadvance=62     page=0  chnl=0 
char id=78   x=276     y=73     width=72     height=59     xoffset=-1     yoffset=19    xadvance=71     page=0  chnl=0 
char id=72   x=348     y=73     width=68     height=59     xoffset=-1     yoffset=18    xadvance=66     page=0  chnl=0 
char id=71   x=416     y=73     width=65     height=59     xoffset=1     yoffset=19    xadvance=66     page=0  chnl=0 
char id=67   x=0     y=132     width=57     height=59     xoffset=1     yoffset=18    xadvance=59     page=0  chnl=0 
char id=65   x=57     y=132     width=78     height=59     xoffset=-4     yoffset=19    xadvance=64     page=0  chnl=0 
char id=48   x=135     y=132     width=62     height=58     xoffset=1     yoffset=19    xadvance=64     page=0  chnl=0 
char id=55   x=197     y=132     width=59     height=58     xoffset=0     yoffset=20    xadvance=59     page=0  chnl=0 
char id=54   x=256     y=132     width=62     height=58     xoffset=1     yoffset=19    xadvance=63     page=0  chnl=0 
char id=53   x=318     y=132     width=61     height=58     xoffset=0     yoffset=19    xadvance=62     page=0  chnl=0 
char id=51   x=379     y=132     width=64     height=58     xoffset=-2     yoffset=19    xadvance=61     page=0  chnl=0 
char id=50   x=443     y=132     width=64     height=58     xoffset=-4     yoffset=19    xadvance=57     page=0  chnl=0 
char id=49   x=0     y=191     width=42     height=58     xoffset=-4     yoffset=19    xadvance=38     page=0  chnl=0 
char id=121   x=42     y=191     width=49     height=58     xoffset=0     yoffset=35    xadvance=50     page=0  chnl=0 
char id=108   x=91     y=191     width=33     height=58     xoffset=-2     yoffset=19    xadvance=30     page=0  chnl=0 
char id=104   x=124     y=191     width=50     height=58     xoffset=-2     yoffset=20    xadvance=48     page=0  chnl=0 
char id=102   x=174     y=191     width=49     height=58     xoffset=0     yoffset=19    xadvance=46     page=0  chnl=0 
char id=100   x=223     y=191     width=48     height=58     xoffset=0     yoffset=19    xadvance=48     page=0  chnl=0 
char id=90   x=271     y=191     width=64     height=58     xoffset=-4     yoffset=20    xadvance=59     page=0  chnl=0 
char id=87   x=335     y=191     width=87     height=58     xoffset=-2     yoffset=21    xadvance=79     page=0  chnl=0 
char id=86   x=422     y=191     width=79     height=58     xoffset=-5     yoffset=20    xadvance=59     page=0  chnl=0 
char id=85   x=0     y=249     width=62     height=58     xoffset=1     yoffset=19    xadvance=64     page=0  chnl=0 
char id=84   x=62     y=249     width=66     height=58     xoffset=-1     yoffset=20    xadvance=56     page=0  chnl=0 
char id=80   x=128     y=249     width=63     height=58     xoffset=-2     yoffset=20    xadvance=61     page=0  chnl=0 
char id=79   x=191     y=249     width=62     height=58     xoffset=1     yoffset=19    xadvance=63     page=0  chnl=0 
char id=77   x=253     y=249     width=85     height=58     xoffset=0     yoffset=20    xadvance=82     page=0  chnl=0 
char id=76   x=338     y=249     width=58     height=58     xoffset=-3     yoffset=21    xadvance=55     page=0  chnl=0 
char id=75   x=396     y=249     width=75     height=58     xoffset=-2     yoffset=20    xadvance=63     page=0  chnl=0 
char id=74   x=0     y=307     width=62     height=58     xoffset=0     yoffset=19    xadvance=61     page=0  chnl=0 
char id=73   x=62     y=307     width=52     height=58     xoffset=-2     yoffset=20    xadvance=42     page=0  chnl=0 
char id=70   x=114     y=307     width=65     height=58     xoffset=-4     yoffset=20    xadvance=57     page=0  chnl=0 
char id=69   x=179     y=307     width=68     height=58     xoffset=-5     yoffset=20    xadvance=61     page=0  chnl=0 
char id=68   x=247     y=307     width=66     height=58     xoffset=-5     yoffset=19    xadvance=59     page=0  chnl=0 
char id=66   x=313     y=307     width=68     height=58     xoffset=-6     yoffset=20    xadvance=59     page=0  chnl=0 
char id=52   x=381     y=307     width=68     height=57     xoffset=-2     yoffset=20    xadvance=65     page=0  chnl=0 
char id=116   x=449     y=307     width=47     height=57     xoffset=-1     yoffset=20    xadvance=47     page=0  chnl=0 
char id=105   x=0     y=365     width=43     height=57     xoffset=-3     yoffset=20    xadvance=35     page=0  chnl=0 
char id=98   x=43     y=365     width=49     height=57     xoffset=-1     yoffset=20    xadvance=48     page=0  chnl=0 
char id=43   x=92     y=365     width=46     height=48     xoffset=8     yoffset=28    xadvance=63     page=0  chnl=0 
char id=99   x=138     y=365     width=44     height=44     xoffset=0     yoffset=34    xadvance=44     page=0  chnl=0 
char id=119   x=182     y=365     width=81     height=43     xoffset=-4     yoffset=34    xadvance=73     page=0  chnl=0 
char id=118   x=263     y=365     width=71     height=43     xoffset=-5     yoffset=34    xadvance=55     page=0  chnl=0 
char id=115   x=334     y=365     width=50     height=43     xoffset=-2     yoffset=34    xadvance=47     page=0  chnl=0 
char id=114   x=384     y=365     width=49     height=43     xoffset=-2     yoffset=34    xadvance=45     page=0  chnl=0 
char id=111   x=433     y=365     width=45     height=43     xoffset=0     yoffset=34    xadvance=46     page=0  chnl=0 
char id=110   x=0     y=422     width=49     height=43     xoffset=-2     yoffset=34    xadvance=48     page=0  chnl=0 
char id=109   x=49     y=422     width=63     height=43     xoffset=-2     yoffset=34    xadvance=62     page=0  chnl=0 
char id=101   x=112     y=422     width=47     height=43     xoffset=0     yoffset=34    xadvance=48     page=0  chnl=0 
char id=97   x=159     y=422     width=47     height=43     xoffset=0     yoffset=34    xadvance=48     page=0  chnl=0 
char id=122   x=206     y=422     width=48     height=42     xoffset=-1     yoffset=35    xadvance=46     page=0  chnl=0 
char id=120   x=254     y=422     width=69     height=42     xoffset=-3     yoffset=35    xadvance=59     page=0  chnl=0 
char id=117   x=323     y=422     width=49     height=42     xoffset=0     yoffset=35    xadvance=50     page=0  chnl=0 
char id=58   x=372     y=422     width=24     height=34     xoffset=4     yoffset=42    xadvance=31     page=0  chnl=0 
char id=45   x=396     y=422     width=26     height=19     xoffset=2     yoffset=41    xadvance=30     page=0  chnl=0 
char id=46   x=422     y=422     width=24     height=16     xoffset=4     yoffset=60    xadvance=31     page=0  chnl=0 
char id=95   x=446     y=422     width=41     height=12     xoffset=-1     yoffset=75    xadvance=39     page=0  chnl=0 
kernings count=496
kerning first=82  second=87  amount=-1
kerning first=82  second=101  amount=-1
kerning first=57  second=49  amount=1
kerning first=57  second=55  amount=-2
kerning first=56  second=49  amount=-1
kerning first=56  second=52  amount=1
kerning first=56  second=55  amount=-2
kerning first=113  second=99  amount=-1
kerning first=113  second=117  amount=1
kerning first=107  second=45  amount=-2
kerning first=107  second=46  amount=1
kerning first=107  second=97  amount=1
kerning first=107  second=115  amount=2
kerning first=89  second=45  amount=-6
kerning first=89  second=46  amount=-8
kerning first=89  second=58  amount=-5
kerning first=89  second=65  amount=-3
kerning first=89  second=67  amount=-1
kerning first=89  second=71  amount=-1
kerning first=89  second=79  amount=-2
kerning first=89  second=83  amount=3
kerning first=89  second=84  amount=4
kerning first=89  second=97  amount=-6
kerning first=89  second=101  amount=-7
kerning first=89  second=103  amount=-6
kerning first=89  second=105  amount=2
kerning first=89  second=111  amount=-7
kerning first=89  second=112  amount=-2
kerning first=89  second=117  amount=-3
kerning first=89  second=118  amount=-1
kerning first=88  second=45  amount=-5
kerning first=88  second=67  amount=-2
kerning first=88  second=79  amount=-3
kerning first=88  second=81  amount=-3
kerning first=88  second=97  amount=-2
kerning first=88  second=101  amount=-4
kerning first=88  second=111  amount=-4
kerning first=88  second=117  amount=-4
kerning first=88  second=121  amount=-4
kerning first=83  second=65  amount=-1
kerning first=83  second=84  amount=-1
kerning first=83  second=86  amount=-3
kerning first=83  second=87  amount=-2
kerning first=83  second=89  amount=-3
kerning first=78  second=46  amount=-1
kerning first=78  second=65  amount=2
kerning first=78  second=67  amount=-1
kerning first=78  second=71  amount=-1
kerning first=78  second=79  amount=-1
kerning first=78  second=97  amount=-1
kerning first=78  second=101  amount=-1
kerning first=78  second=111  amount=-1
kerning first=78  second=117  amount=-1
kerning first=71  second=65  amount=-1
kerning first=71  second=86  amount=1
kerning first=71  second=87  amount=-1
kerning first=71  second=89  amount=1
kerning first=67  second=65  amount=1
kerning first=67  second=72  amount=1
kerning first=67  second=75  amount=1
kerning first=67  second=79  amount=1
kerning first=65  second=46  amount=3
kerning first=65  second=71  amount=-1
kerning first=65  second=84  amount=-2
kerning first=65  second=86  amount=-2
kerning first=65  second=87  amount=-1
kerning first=65  second=89  amount=-2
kerning first=65  second=97  amount=2
kerning first=65  second=98  amount=1
kerning first=65  second=99  amount=2
kerning first=65  second=100  amount=1
kerning first=65  second=101  amount=2
kerning first=65  second=103  amount=1
kerning first=65  second=111  amount=1
kerning first=65  second=113  amount=2
kerning first=65  second=116  amount=-1
kerning first=65  second=117  amount=1
kerning first=65  second=118  amount=-2
kerning first=65  second=119  amount=-2
kerning first=65  second=121  amount=2
kerning first=48  second=55  amount=-1
kerning first=55  second=46  amount=-4
kerning first=55  second=49  amount=1
kerning first=55  second=52  amount=-4
kerning first=55  second=54  amount=-2
kerning first=55  second=55  amount=1
kerning first=55  second=58  amount=-2
kerning first=54  second=49  amount=-1
kerning first=54  second=52  amount=1
kerning first=54  second=55  amount=-1
kerning first=53  second=52  amount=1
kerning first=53  second=55  amount=-1
kerning first=51  second=52  amount=2
kerning first=51  second=55  amount=-1
kerning first=50  second=49  amount=1
kerning first=50  second=52  amount=1
kerning first=49  second=46  amount=-1
kerning first=49  second=48  amount=-1
kerning first=49  second=49  amount=1
kerning first=49  second=50  amount=2
kerning first=49  second=52  amount=-2
kerning first=49  second=54  amount=-1
kerning first=49  second=56  amount=-2
kerning first=121  second=46  amount=1
kerning first=121  second=58  amount=2
kerning first=108  second=118  amount=1
kerning first=108  second=121  amount=-1
kerning first=102  second=101  amount=-1
kerning first=102  second=102  amount=1
kerning first=102  second=105  amount=2
kerning first=102  second=106  amount=4
kerning first=102  second=116  amount=1
kerning first=87  second=45  amount=-2
kerning first=87  second=46  amount=-3
kerning first=87  second=58  amount=-1
kerning first=87  second=65  amount=-1
kerning first=87  second=67  amount=-2
kerning first=87  second=71  amount=-2
kerning first=87  second=79  amount=-2
kerning first=87  second=83  amount=2
kerning first=87  second=84  amount=3
kerning first=87  second=97  amount=-3
kerning first=87  second=101  amount=-3
kerning first=87  second=103  amount=-3
kerning first=87  second=105  amount=1
kerning first=87  second=111  amount=-3
kerning first=87  second=114  amount=-2
kerning first=87  second=117  amount=-3
kerning first=87  second=121  amount=-3
kerning first=86  second=45  amount=-2
kerning first=86  second=46  amount=-5
kerning first=86  second=58  amount=-2
kerning first=86  second=65  amount=-1
kerning first=86  second=67  amount=-2
kerning first=86  second=71  amount=-3
kerning first=86  second=79  amount=-3
kerning first=86  second=83  amount=1
kerning first=86  second=84  amount=4
kerning first=86  second=97  amount=-4
kerning first=86  second=101  amount=-4
kerning first=86  second=103  amount=-4
kerning first=86  second=105  amount=1
kerning first=86  second=111  amount=-4
kerning first=86  second=114  amount=-2
kerning first=86  second=117  amount=-3
kerning first=86  second=121  amount=-3
kerning first=85  second=46  amount=-1
kerning first=85  second=65  amount=-2
kerning first=84  second=45  amount=-2
kerning first=84  second=46  amount=-6
kerning first=84  second=58  amount=-3
kerning first=84  second=65  amount=-1
kerning first=84  second=67  amount=-2
kerning first=84  second=71  amount=-2
kerning first=84  second=74  amount=-2
kerning first=84  second=79  amount=-2
kerning first=84  second=83  amount=1
kerning first=84  second=86  amount=5
kerning first=84  second=87  amount=3
kerning first=84  second=89  amount=5
kerning first=84  second=97  amount=-4
kerning first=84  second=99  amount=-4
kerning first=84  second=101  amount=-4
kerning first=84  second=103  amount=-4
kerning first=84  second=106  amount=3
kerning first=84  second=111  amount=-4
kerning first=84  second=114  amount=-1
kerning first=84  second=115  amount=-4
kerning first=84  second=117  amount=-2
kerning first=84  second=118  amount=1
kerning first=84  second=121  amount=-2
kerning first=80  second=45  amount=2
kerning first=80  second=46  amount=-4
kerning first=80  second=65  amount=-3
kerning first=80  second=74  amount=1
kerning first=80  second=101  amount=-1
kerning first=80  second=111  amount=-1
kerning first=79  second=65  amount=-2
kerning first=79  second=86  amount=-2
kerning first=79  second=87  amount=-1
kerning first=79  second=88  amount=-2
kerning first=79  second=89  amount=-2
kerning first=76  second=45  amount=1
kerning first=76  second=65  amount=3
kerning first=76  second=67  amount=-1
kerning first=76  second=71  amount=-2
kerning first=76  second=79  amount=-1
kerning first=76  second=83  amount=-1
kerning first=76  second=84  amount=-1
kerning first=76  second=85  amount=-1
kerning first=76  second=86  amount=-3
kerning first=76  second=87  amount=-1
kerning first=76  second=89  amount=-3
kerning first=75  second=45  amount=-1
kerning first=75  second=67  amount=-1
kerning first=75  second=71  amount=-1
kerning first=75  second=79  amount=-1
kerning first=75  second=84  amount=1
kerning first=75  second=111  amount=-1
kerning first=75  second=117  amount=-1
kerning first=74  second=65  amount=-2
kerning first=70  second=45  amount=3
kerning first=70  second=46  amount=-1
kerning first=70  second=65  amount=-1
kerning first=70  second=74  amount=2
kerning first=70  second=79  amount=1
kerning first=70  second=97  amount=1
kerning first=70  second=105  amount=2
kerning first=70  second=106  amount=4
kerning first=70  second=111  amount=1
kerning first=70  second=114  amount=1
kerning first=68  second=65  amount=-2
kerning first=68  second=86  amount=-2
kerning first=68  second=87  amount=-2
kerning first=68  second=88  amount=-2
kerning first=68  second=89  amount=-2
kerning first=66  second=65  amount=-2
kerning first=66  second=87  amount=-1
kerning first=52  second=49  amount=2
kerning first=52  second=52  amount=1
kerning first=116  second=58  amount=2
kerning first=116  second=83  amount=1
kerning first=116  second=97  amount=1
kerning first=116  second=104  amount=1
kerning first=105  second=84  amount=1
kerning first=105  second=106  amount=3
kerning first=98  second=118  amount=-1
kerning first=98  second=119  amount=-1
kerning first=99  second=104  amount=1
kerning first=99  second=107  amount=1
kerning first=119  second=45  amount=-1
kerning first=119  second=46  amount=-4
kerning first=119  second=58  amount=-1
kerning first=119  second=97  amount=-2
kerning first=119  second=99  amount=-2
kerning first=119  second=101  amount=-2
kerning first=119  second=103  amount=-2
kerning first=119  second=108  amount=-1
kerning first=119  second=111  amount=-2
kerning first=119  second=115  amount=-2
kerning first=118  second=45  amount=-2
kerning first=118  second=46  amount=-6
kerning first=118  second=58  amount=-2
kerning first=118  second=97  amount=-1
kerning first=118  second=99  amount=-2
kerning first=118  second=101  amount=-2
kerning first=118  second=103  amount=-1
kerning first=118  second=111  amount=-2
kerning first=114  second=45  amount=1
kerning first=114  second=46  amount=-4
kerning first=114  second=58  amount=-1
kerning first=114  second=97  amount=-1
kerning first=114  second=99  amount=-1
kerning first=114  second=100  amount=-1
kerning first=114  second=101  amount=-1
kerning first=114  second=102  amount=2
kerning first=114  second=103  amount=-1
kerning first=114  second=105  amount=3
kerning first=114  second=106  amount=4
kerning first=114  second=108  amount=-1
kerning first=114  second=109  amount=2
kerning first=114  second=110  amount=2
kerning first=114  second=111  amount=-1
kerning first=114  second=112  amount=2
kerning first=114  second=113  amount=-1
kerning first=114  second=114  amount=2
kerning first=114  second=116  amount=2
kerning first=114  second=117  amount=1
kerning first=114  second=118  amount=4
kerning first=114  second=119  amount=3
kerning first=114  second=120  amount=3
kerning first=114  second=121  amount=1
kerning first=114  second=122  amount=2
kerning first=111  second=84  amount=-1
kerning first=111  second=118  amount=-1
kerning first=111  second=119  amount=-2
kerning first=111  second=120  amount=-1
kerning first=109  second=119  amount=-1
kerning first=101  second=118  amount=-1
kerning first=101  second=119  amount=-1
kerning first=101  second=120  amount=2
kerning first=97  second=106  amount=4
kerning first=97  second=118  amount=2
kerning first=97  second=119  amount=2
kerning first=120  second=97  amount=-1
kerning first=120  second=99  amount=-2
kerning first=120  second=101  amount=-2
kerning first=120  second=111  amount=-2
kerning first=120  second=113  amount=-1
kerning first=45  second=84  amount=1
kerning first=45  second=86  amount=-2
kerning first=45  second=89  amount=-6
kerning first=46  second=49  amount=-1
