# Exported from Wings 3D 1.4.1
mtllib button.mtl
o button
#8 vertices, 6 faces
v -0.22700000 0.68613333 0.22700000
v 0.22700000 0.68613333 0.22700000
v -0.22700000 0.68613333 -0.22700000
v 0.22700000 0.68613333 -0.22700000
v -0.22700000 0.99144000 0.22700000
v 0.22700000 0.99144000 0.22700000
v 0.22700000 0.99144000 -0.22700000
v -0.22700000 0.99144000 -0.22700000
vt 0.33333333 0.66666667
vt 0.66666667 0.0000000e+0
vt 0.66666667 0.33333333
vt 0.66666667 0.66666667
vt 1.00000000 0.0000000e+0
vt 1.00000000 0.33333333
vt 1.00000000 0.66666667
vn -0.57735027 -0.57735027 0.57735027
vn 0.57735027 -0.57735027 0.57735027
vn -0.57735027 -0.57735027 -0.57735027
vn 0.57735027 -0.57735027 -0.57735027
vn -0.57735027 0.57735027 0.57735027
vn 0.57735027 0.57735027 0.57735027
vn 0.57735027 0.57735027 -0.57735027
vn -0.57735027 0.57735027 -0.57735027
g button_cube2_auv
usemtl cube2_auv
s 1
f 1/7/1 3/1/3 4/4/4 2/3/2
f 1/7/1 5/2/5 8/3/8 3/7/3
f 2/3/2 6/5/6 5/2/5 1/3/1
f 3/1/3 8/3/8 7/6/7 4/1/4
f 4/4/4 7/6/7 6/5/6 2/4/2
f 6/5/6 7/6/7 8/3/8 5/2/5
o base
#8 vertices, 6 faces
v -0.50000000 0.0000000e+0 0.50000000
v -0.22700000 0.21105333 0.22700000
v 0.22700000 0.21105333 0.22700000
v 0.50000000 0.0000000e+0 0.50000000
v -0.50000000 0.0000000e+0 -0.50000000
v -0.22700000 0.21105333 -0.22700000
v 0.22700000 0.21105333 -0.22700000
v 0.50000000 0.0000000e+0 -0.50000000
vt 0.0000000e+0 5.5511151e-17
vt 0.0000000e+0 0.33333333
vt 5.5511151e-17 0.33333333
vt 5.5511151e-17 0.66666667
vt 0.33333333 0.0000000e+0
vt 0.33333333 0.33333333
vt 0.33333333 0.0000000e+0
vt 0.33333333 0.33333333
vt 0.33333333 0.33333333
vt 0.33333333 0.66666667
vt 0.33333333 0.66666667
vt 0.66666667 0.0000000e+0
vt 0.66666667 0.33333333
vt 0.66666667 0.33333333
vt 0.66666667 0.66666667
vt 1.00000000 0.0000000e+0
vt 1.00000000 0.33333333
vt 1.00000000 0.33333333
vt 1.00000000 0.66666667
vn -0.58657538 0.55844305 0.58657538
vn -0.22458956 0.94821889 0.22458956
vn 0.22458956 0.94821889 0.22458956
vn 0.58657538 0.55844305 0.58657538
vn -0.58657538 0.55844305 -0.58657538
vn -0.22458956 0.94821889 -0.22458956
vn 0.22458956 0.94821889 -0.22458956
vn 0.58657538 0.55844305 -0.58657538
g base_cube2_auv
usemtl cube2_auv
s 1
f 9/14/9 12/19/12 11/20/11 10/15/10
f 9/12/9 13/15/13 16/10/16 12/8/12
f 10/26/10 14/22/14 13/21/13 9/25/9
f 11/23/11 15/24/15 14/20/14 10/19/10
f 12/16/12 16/21/16 15/22/15 11/17/11
f 14/18/14 15/11/15 16/9/16 13/13/13
