# Exported from Wings 3D 1.4.1
mtllib zipperfly.mtl
o body
#20 vertices, 24 faces
v 0.35355339 0.35355339 0.0000000e+0
v 0.17677670 0.35355339 0.30618622
v -0.17677670 0.35355339 0.30618622
v -0.35355339 0.35355339 4.3297803e-17
v -0.17677670 0.35355339 -0.30618622
v 0.17677670 0.35355339 -0.30618622
v 0.50000000 3.0616170e-17 0.0000000e+0
v 0.25000000 3.0616170e-17 0.43301270
v -0.25000000 3.0616170e-17 0.43301270
v -0.50000000 3.0616170e-17 6.1232340e-17
v -0.25000000 3.0616170e-17 -0.43301270
v 0.25000000 3.0616170e-17 -0.43301270
v 0.35355339 -0.35355339 0.0000000e+0
v 0.17677670 -0.35355339 0.30618622
v -0.17677670 -0.35355339 0.30618622
v -0.35355339 -0.35355339 4.3297803e-17
v -0.17677670 -0.35355339 -0.30618622
v 0.17677670 -0.35355339 -0.30618622
v 0.0000000e+0 0.50000000 0.0000000e+0
v 0.0000000e+0 -0.50000000 0.0000000e+0
vt 0.25000000 0.25000000
vt 0.25000000 0.75000000
vn 0.69212328 0.72177930 -4.8476689e-17
vn 0.34606164 0.72177930 0.59939634
vn -0.34606164 0.72177930 0.59939634
vn -0.69212328 0.72177930 1.7774786e-16
vn -0.34606164 0.72177930 -0.59939634
vn 0.34606164 0.72177930 -0.59939634
vn 1.00000000 1.3619619e-16 -2.0429428e-16
vn 0.50000000 1.7024523e-16 0.86602540
vn -0.50000000 1.1917166e-16 0.86602540
vn -1.00000000 1.0214714e-16 2.7239237e-16
vn -0.50000000 1.0214714e-16 -0.86602540
vn 0.50000000 8.5122616e-17 -0.86602540
vn 0.69212328 -0.72177930 -8.0794481e-17
vn 0.34606164 -0.72177930 0.59939634
vn -0.34606164 -0.72177930 0.59939634
vn -0.69212328 -0.72177930 2.4238344e-16
vn -0.34606164 -0.72177930 -0.59939634
vn 0.34606164 -0.72177930 -0.59939634
vn -6.1533900e-17 1.00000000 2.0511300e-17
vn -7.1789550e-17 -1.00000000 8.7173026e-17
g body_body_auv
usemtl body_auv
s 1
f 1/1/1 7/1/7 12/1/12 6/1/6
f 1/1/1 19/1/19 2/1/2
f 2/1/2 8/1/8 7/1/7 1/1/1
f 2/2/2 19/2/19 3/2/3
f 3/2/3 9/2/9 8/2/8 2/2/2
f 3/2/3 19/2/19 4/2/4
f 4/2/4 10/2/10 9/2/9 3/2/3
f 4/2/4 19/2/19 5/2/5
f 5/2/5 11/2/11 10/2/10 4/2/4
f 5/1/5 19/1/19 6/1/6
f 6/1/6 12/1/12 11/1/11 5/1/5
f 6/1/6 19/1/19 1/1/1
f 7/1/7 13/1/13 18/1/18 12/1/12
f 8/1/8 14/1/14 13/1/13 7/1/7
f 9/2/9 15/2/15 14/2/14 8/2/8
f 10/2/10 16/2/16 15/2/15 9/2/9
f 11/2/11 17/2/17 16/2/16 10/2/10
f 12/1/12 18/1/18 17/1/17 11/1/11
f 13/1/13 20/1/20 18/1/18
f 14/1/14 20/1/20 13/1/13
f 15/2/15 20/2/20 14/2/14
f 16/2/16 20/2/20 15/2/15
f 17/2/17 20/2/20 16/2/16
f 18/1/18 20/1/20 17/1/17
